{
    "fluentMethods": true,
    "relationships": [
        {
            "relationshipType": "one-to-many",
            "relationshipName": "count",
            "otherEntityName": "count",
            "otherEntityRelationshipName": "bank"
        },
        {
            "relationshipType": "one-to-many",
            "relationshipName": "employees",
            "otherEntityName": "employees",
            "otherEntityRelationshipName": "bank"
        }
    ],
    "fields": [
        {
            "fieldName": "name",
            "fieldType": "String"
        },
        {
            "fieldName": "address",
            "fieldType": "String"
        }
    ],
    "changelogDate": "20180709101209",
    "entityTableName": "bank",
    "dto": "mapstruct",
    "pagination": "no",
    "service": "serviceImpl",
    "jpaMetamodelFiltering": false
}